<?xml version="1.0" encoding="utf-8"?>
<!-- Generator: Adobe Illustrator 16.0.4, SVG Export Plug-In . SVG Version: 6.00 Build 0)  -->
<!DOCTYPE svg PUBLIC "-//W3C//DTD SVG 1.1//EN" "http://www.w3.org/Graphics/SVG/1.1/DTD/svg11.dtd">
<svg version="1.1" id="Layer_1" xmlns="http://www.w3.org/2000/svg" xmlns:xlink="http://www.w3.org/1999/xlink" x="0px" y="0px"
	 width="6.4px" height="9.7px" viewBox="0 0 6.4 9.7" style="enable-background:new 0 0 6.4 9.7;" xml:space="preserve">
<style type="text/css">
<![CDATA[
	.chevronRightWhite-st0{fill:#FFFFFF;}
]]>
</style>
<polygon class="chevronRightWhite-st0" points="6.4,4.8 1.5,9.7 0,8.1 3.3,4.8 0,1.5 1.5,0 "/>
</svg>
