<?xml version="1.0" encoding="utf-8"?>
<!-- Generator: Adobe Illustrator 16.0.4, SVG Export Plug-In . SVG Version: 6.00 Build 0)  -->
<!DOCTYPE svg PUBLIC "-//W3C//DTD SVG 1.1 Basic//EN" "http://www.w3.org/Graphics/SVG/1.1/DTD/svg11-basic.dtd">
<svg version="1.1" baseProfile="basic" id="Layer_1"
	 xmlns="http://www.w3.org/2000/svg" xmlns:xlink="http://www.w3.org/1999/xlink" x="0px" y="0px" width="26px" height="17px"
	 viewBox="0 0 26 17" xml:space="preserve">
<linearGradient id="SVGID_1_" gradientUnits="userSpaceOnUse" x1="13.0005" y1="16.5" x2="13.0005" y2="4.882812e-04">
	<stop  offset="0" style="stop-color:#6E973E"/>
	<stop  offset="1" style="stop-color:#85B740"/>
</linearGradient>
<path fill="url(#SVGID_1_)" stroke="#637D36" stroke-miterlimit="10" d="M0.5,0v12c0,2.5,2,4.5,4.5,4.5h16c2.5,0,4.5-2,4.5-4.5V0"/>
<polygon fill="#FFFFFF" points="13.017,11.062 8.218,6.263 9.718,4.663 13.017,7.962 16.317,4.663 17.917,6.263 "/>
</svg>
