<?xml version="1.0" encoding="utf-8"?>
<!-- Generator: Adobe Illustrator 16.0.4, SVG Export Plug-In . SVG Version: 6.00 Build 0)  -->
<!DOCTYPE svg PUBLIC "-//W3C//DTD SVG 1.1//EN" "http://www.w3.org/Graphics/SVG/1.1/DTD/svg11.dtd">
<svg version="1.1" id="Layer_1" xmlns="http://www.w3.org/2000/svg" xmlns:xlink="http://www.w3.org/1999/xlink" x="0px" y="0px"
	 width="7.561px" height="14.291px" viewBox="0 0 7.561 14.291" enable-background="new 0 0 7.561 14.291" xml:space="preserve">
<polyline fill="none" stroke="#8E99A8" stroke-width="2" stroke-miterlimit="10" points="0.764,0.645 6.252,7.145 0.764,13.645 "/>
</svg>
