<?xml version="1.0" encoding="utf-8"?>
<!-- Generator: Adobe Illustrator 16.0.4, SVG Export Plug-In . SVG Version: 6.00 Build 0)  -->
<!DOCTYPE svg PUBLIC "-//W3C//DTD SVG 1.1//EN" "http://www.w3.org/Graphics/SVG/1.1/DTD/svg11.dtd">
<svg version="1.1" id="Layer_2" xmlns="http://www.w3.org/2000/svg" xmlns:xlink="http://www.w3.org/1999/xlink" x="0px" y="0px"
	 width="35px" height="35px" viewBox="0 0 35 35" enable-background="new 0 0 35 35" xml:space="preserve">
<path fill="#FFFFFF" d="M21.914,14.151h-3.007v-1.971c0-0.741,0.491-0.914,0.837-0.914c0.345,0,2.122,0,2.122,0V8.011L18.942,8
	c-3.244,0-3.981,2.428-3.981,3.981v2.17h-1.876v3.356h1.876c0,4.305,0,9.492,0,9.492h3.946c0,0,0-5.238,0-9.492h2.663L21.914,14.151
	z"/>
</svg>
